[
  {
    "Name": "Test",
    "Character_Class": "Druid",
    "Age": "24",
    "Sex": "Male",
    "Race": "Human",
    "Ideals": [""],
    "Flaws": ["Afraid of the dark", "Spiders"],
    "Height": "5.2",
    "Weight": "110",
    "Alignment": "Neutral",
    "Background": "He is a test character to see if works",
    "Spells": [""],
    "Proficiency": [""],
    "Equipment": [""]
  },
  {
    "Name": "Test2",
    "Character_Class": "Druid",
    "Age": "24",
    "Sex": "Male",
    "Race": "Human",
    "Ideals": [""],
    "Flaws": ["Afraid of the dark", "Spiders"],
    "Height": "5.2",
    "Weight": "110",
    "Alignment": "Neutral",
    "Background": "He is a test character to see if works",
    "Spells": [""],
    "Proficiency": [""],
    "Equipment": [""]
  }
]
